"AssemblyFileName","ClassName","Target","Severity","ProblemId","Description","Remediation"
"Az.Resources","Microsoft.Azure.Commands.ResourceManager.Cmdlets.Implementation.NewAzurePolicyDefinitionCmdlet","New-AzPolicyDefinition","0","1050","The parameter set 'NameParameterSet' for cmdlet 'New-AzPolicyDefinition' has been removed.","Add parameter set 'NameParameterSet' back to cmdlet 'New-AzPolicyDefinition'."
"Az.Resources","Microsoft.Azure.Commands.ResourceManager.Cmdlets.Implementation.NewAzurePolicyExemptionCmdlet","New-AzPolicyExemption","0","1050","The parameter set 'DefaultParameterSet' for cmdlet 'New-AzPolicyExemption' has been removed.","Add parameter set 'DefaultParameterSet' back to cmdlet 'New-AzPolicyExemption'."
"Az.Resources","Microsoft.Azure.Commands.ResourceManager.Cmdlets.Implementation.NewAzurePolicySetDefinitionCmdlet","New-AzPolicySetDefinition","0","1050","The parameter set 'NameParameterSet' for cmdlet 'New-AzPolicySetDefinition' has been removed.","Add parameter set 'NameParameterSet' back to cmdlet 'New-AzPolicySetDefinition'."
"Az.Resources","Microsoft.Azure.Commands.ResourceManager.Cmdlets.Implementation.GetAzTemplateSpec","Get-AzTemplateSpec","0","3010","The property 'Artifacts' of type 'Microsoft.Azure.Commands.ResourceManager.Cmdlets.SdkModels.PSTemplateSpecVersion' has been removed.","Add the property 'Artifacts' back to type 'Microsoft.Azure.Commands.ResourceManager.Cmdlets.SdkModels.PSTemplateSpecVersion'."
"Az.Resources","Microsoft.Azure.Commands.ResourceManager.Cmdlets.Implementation.GetAzTemplateSpec","Get-AzTemplateSpec","0","3010","The property 'Template' of type 'Microsoft.Azure.Commands.ResourceManager.Cmdlets.SdkModels.PSTemplateSpecVersion' has been removed.","Add the property 'Template' back to type 'Microsoft.Azure.Commands.ResourceManager.Cmdlets.SdkModels.PSTemplateSpecVersion'."